<?xml version='1.0' encoding='utf-8'?>
<!DOCTYPE svg PUBLIC '-//W3C//DTD SVG 1.1//EN' 'http://www.w3.org/Graphics/SVG/1.1/DTD/svg11.dtd'>
<svg xmlns='http://www.w3.org/2000/svg' viewBox='-108 -6 1197 673' xmlns:xlink='http://www.w3.org/1999/xlink' width='1197.0px' font-size='13' font-family='Arial, LiberationSans' version='1.1' height='673.0px'>
  <defs>
<style type='text/css'><![CDATA[svg text {text-rendering: geometricPrecision;}]]></style>    <linearGradient y1='0.0%' x1='0.0%' y2='100.0%' x2='0.0%' id='23e5af6b-e727-4500-bc7e-0d37f00b82cd' spreadMethod='pad'>
      <stop stop-opacity='1' offset='0' stop-color='rgb(255, 255, 255)'/>
      <stop stop-opacity='1' offset='100' stop-color='rgb(238, 238, 238)'/>
    </linearGradient>
    <linearGradient y1='0.0%' x1='0.0%' y2='100.0%' x2='0.0%' id='995fc9d5-5ac0-42b8-b532-f42772b11135' spreadMethod='pad'>
      <stop stop-opacity='1' offset='0' stop-color='rgb(255, 255, 255)'/>
      <stop stop-opacity='1' offset='100' stop-color='rgb(238, 238, 238)'/>
    </linearGradient>
    <linearGradient y1='0.0%' x1='0.0%' y2='100.0%' x2='0.0%' id='82f541a0-3a48-46df-a450-eb8ce0018637' spreadMethod='pad'>
      <stop stop-opacity='1' offset='0' stop-color='rgb(255, 255, 255)'/>
      <stop stop-opacity='1' offset='100' stop-color='rgb(238, 238, 238)'/>
    </linearGradient>
    <linearGradient y1='0.0%' x1='0.0%' y2='100.0%' x2='0.0%' id='4879e88e-5e2f-4c33-9991-54d339b44a6b' spreadMethod='pad'>
      <stop stop-opacity='1' offset='0' stop-color='rgb(255, 255, 255)'/>
      <stop stop-opacity='1' offset='100' stop-color='rgb(238, 238, 238)'/>
    </linearGradient>
    <linearGradient y1='0.0%' x1='0.0%' y2='100.0%' x2='0.0%' id='5601f413-1df1-4569-a1e1-d68dbf716b72' spreadMethod='pad'>
      <stop stop-opacity='1' offset='0' stop-color='rgb(255, 255, 255)'/>
      <stop stop-opacity='1' offset='100' stop-color='rgb(238, 238, 238)'/>
    </linearGradient>
    <linearGradient y1='0.0%' x1='0.0%' y2='100.0%' x2='0.0%' id='626ff1be-7ae1-4084-9bb4-917d84876d71' spreadMethod='pad'>
      <stop stop-opacity='1' offset='0' stop-color='rgb(255, 255, 255)'/>
      <stop stop-opacity='1' offset='100' stop-color='rgb(238, 238, 238)'/>
    </linearGradient>
    <linearGradient y1='0.0%' x1='0.0%' y2='100.0%' x2='0.0%' id='9ac31de2-6245-4e27-b3c1-976dcf3141f3' spreadMethod='pad'>
      <stop stop-opacity='1' offset='0' stop-color='rgb(255, 255, 255)'/>
      <stop stop-opacity='1' offset='100' stop-color='rgb(238, 238, 238)'/>
    </linearGradient>
    <linearGradient y1='0.0%' x1='0.0%' y2='100.0%' x2='0.0%' id='a1f07fed-597e-4350-be9c-162e69a6ac2c' spreadMethod='pad'>
      <stop stop-opacity='1' offset='0' stop-color='rgb(255, 255, 255)'/>
      <stop stop-opacity='1' offset='100' stop-color='rgb(238, 238, 238)'/>
    </linearGradient>
    <linearGradient y1='0.0%' x1='0.0%' y2='100.0%' x2='0.0%' id='659b0442-d805-4fa6-95c9-38666e540376' spreadMethod='pad'>
      <stop stop-opacity='1' offset='0' stop-color='rgb(255, 255, 255)'/>
      <stop stop-opacity='1' offset='100' stop-color='rgb(238, 238, 238)'/>
    </linearGradient>
    <linearGradient y1='0.0%' x1='0.0%' y2='100.0%' x2='0.0%' id='3db9bf3f-9374-4530-88ae-4af3a5a32ea9' spreadMethod='pad'>
      <stop stop-opacity='1' offset='0' stop-color='rgb(255, 255, 255)'/>
      <stop stop-opacity='1' offset='100' stop-color='rgb(238, 238, 238)'/>
    </linearGradient>
    <linearGradient y1='0.0%' x1='0.0%' y2='100.0%' x2='0.0%' id='01f4b134-f09d-405e-80fa-b39b7380fc63' spreadMethod='pad'>
      <stop stop-opacity='1' offset='0' stop-color='rgb(255, 255, 255)'/>
      <stop stop-opacity='1' offset='100' stop-color='rgb(238, 238, 238)'/>
    </linearGradient>
    <linearGradient y1='0.0%' x1='0.0%' y2='100.0%' x2='0.0%' id='9f53388b-7502-46e6-a05d-4575ed3edd41' spreadMethod='pad'>
      <stop stop-opacity='1' offset='0' stop-color='rgb(255, 255, 255)'/>
      <stop stop-opacity='1' offset='100' stop-color='rgb(238, 238, 238)'/>
    </linearGradient>
    <linearGradient y1='0.0%' x1='0.0%' y2='100.0%' x2='0.0%' id='e85c448d-8d27-4fc5-b96f-8122bae806cb' spreadMethod='pad'>
      <stop stop-opacity='1' offset='0' stop-color='rgb(255, 255, 255)'/>
      <stop stop-opacity='1' offset='100' stop-color='rgb(238, 238, 238)'/>
    </linearGradient>
  </defs>
  <desc>ClassDiagram</desc>
  <g transform='translate(40.0,246.0)' id='_AZB1oFcdEDmMj86LKNAAeA'>
    <circle r='9.5' cx='45.0' cy='11.5' stroke-width='1.5' fill='rgb(255, 255, 255)' stroke='rgb(136, 136, 136)' look='allInOne'/>
    <line y1='21.0' x1='45.0' y2='66.5' x2='45.0' stroke-width='1.5' fill='rgb(255, 255, 255)' stroke='rgb(136, 136, 136)' look='allInOne'/>
    <line y1='38.0' x1='25.0' y2='38.0' x2='65.0' stroke-width='1.5' fill='rgb(255, 255, 255)' stroke='rgb(136, 136, 136)' look='allInOne'/>
    <line y1='66.5' x1='45.0' y2='93.0' x2='29.4' stroke-width='1.5' fill='rgb(255, 255, 255)' stroke='rgb(136, 136, 136)' look='allInOne'/>
    <line y1='66.5' x1='45.0' y2='93.0' x2='60.6' fill='rgb(255, 255, 255)' stroke='rgb(136, 136, 136)' look='allInOne'/>
    <text text-anchor='middle' x='45.0' y='108.0' font-size='13' font-style='normal' fill='rgb(0, 0, 0)'>Membre</text>
  </g>
  <g transform='translate(219.0,24.0)' id='_C4WXwFcdEDmMj86LKNAAeA'>
    <ellipse cx='185.0' cy='42.5' rx='185.0' ry='42.5' stroke-width='1.0' fill='url(#23e5af6b-e727-4500-bc7e-0d37f00b82cd)' stroke='rgb(187, 187, 187)' look='allInOne'/>
    <g transform='translate(0.0,29.5)'>
      <g transform='translate(0.0,0.0)'>
        <text font-weight='bold' text-anchor='middle' x='185.0' y='13.0' font-size='13' fill='rgb(3, 54, 86)'>ETQU je me peux m&apos;inscrire et/ou me connecter en tant que</text>
        <text font-weight='bold' text-anchor='middle' x='185.0' y='26.0' font-size='13' fill='rgb(3, 54, 86)'>membre</text>
      </g>
    </g>
  </g>
  <g transform='translate(339.0,120.0)' id='_p8Q4MVcdEDmMj86LKNAAeA'>
    <ellipse cx='185.0' cy='42.5' rx='185.0' ry='42.5' stroke-width='1.0' fill='url(#995fc9d5-5ac0-42b8-b532-f42772b11135)' stroke='rgb(187, 187, 187)' look='allInOne'/>
    <g transform='translate(0.0,36.0)'>
      <g transform='translate(0.0,0.0)'>
        <text font-weight='bold' text-anchor='middle' x='185.0' y='13.0' font-size='13' fill='rgb(3, 54, 86)'>ETQU je peux proposer un ou plusieurs sujets d&apos;improvisations</text>
      </g>
    </g>
  </g>
  <g transform='translate(382.0,227.0)' id='_yvzKYVcdEDmMj86LKNAAeA'>
    <ellipse cx='185.0' cy='42.5' rx='185.0' ry='42.5' stroke-width='1.0' fill='url(#82f541a0-3a48-46df-a450-eb8ce0018637)' stroke='rgb(187, 187, 187)' look='allInOne'/>
    <g transform='translate(0.0,36.0)'>
      <g transform='translate(0.0,0.0)'>
        <text font-weight='bold' text-anchor='middle' x='185.0' y='13.0' font-size='13' fill='rgb(3, 54, 86)'>ETQU je peux voir les sujets proposés </text>
      </g>
    </g>
  </g>
  <g transform='translate(382.0,345.0)' id='_CNNTkVceEDmMj86LKNAAeA'>
    <ellipse cx='185.0' cy='42.5' rx='185.0' ry='42.5' stroke-width='1.0' fill='url(#4879e88e-5e2f-4c33-9991-54d339b44a6b)' stroke='rgb(187, 187, 187)' look='allInOne'/>
    <g transform='translate(0.0,29.5)'>
      <g transform='translate(0.0,0.0)'>
        <text font-weight='bold' text-anchor='middle' x='185.0' y='13.0' font-size='13' fill='rgb(3, 54, 86)'>ETQU je peux voir le/les sujet/s de la semaine a chaque</text>
        <text font-weight='bold' text-anchor='middle' x='185.0' y='26.0' font-size='13' fill='rgb(3, 54, 86)'>rafraichissement de la page</text>
      </g>
    </g>
  </g>
  <g transform='translate(382.0,451.0)' id='_ZfoRMVceEDmMj86LKNAAeA'>
    <ellipse cx='185.0' cy='42.5' rx='185.0' ry='42.5' stroke-width='1.0' fill='url(#5601f413-1df1-4569-a1e1-d68dbf716b72)' stroke='rgb(187, 187, 187)' look='allInOne'/>
    <g transform='translate(0.0,29.5)'>
      <g transform='translate(0.0,0.0)'>
        <text font-weight='bold' text-anchor='middle' x='185.0' y='13.0' font-size='13' fill='rgb(3, 54, 86)'>Lorsqu&apos;un sujet s&apos;affiche, il devrait être marqué comme &quot;traité&quot;</text>
        <text font-weight='bold' text-anchor='middle' x='185.0' y='26.0' font-size='13' fill='rgb(3, 54, 86)'>et ne plus être affiché par la suite</text>
      </g>
    </g>
  </g>
  <g transform='translate(40.0,108.0)' id='_wKIy4VchEDmMj86LKNAAeA'>
    <circle r='9.5' cx='45.0' cy='11.5' stroke-width='1.5' fill='rgb(255, 255, 255)' stroke='rgb(136, 136, 136)' look='allInOne'/>
    <line y1='21.0' x1='45.0' y2='66.5' x2='45.0' stroke-width='1.5' fill='rgb(255, 255, 255)' stroke='rgb(136, 136, 136)' look='allInOne'/>
    <line y1='38.0' x1='25.0' y2='38.0' x2='65.0' stroke-width='1.5' fill='rgb(255, 255, 255)' stroke='rgb(136, 136, 136)' look='allInOne'/>
    <line y1='66.5' x1='45.0' y2='93.0' x2='29.4' stroke-width='1.5' fill='rgb(255, 255, 255)' stroke='rgb(136, 136, 136)' look='allInOne'/>
    <line y1='66.5' x1='45.0' y2='93.0' x2='60.6' fill='rgb(255, 255, 255)' stroke='rgb(136, 136, 136)' look='allInOne'/>
    <text text-anchor='middle' x='45.0' y='108.0' font-size='13' font-style='normal' fill='rgb(0, 0, 0)'>Utilisateur</text>
  </g>
  <g transform='translate(849.0,323.0)' id='_5orw8VchEDmMj86LKNAAeA'>
    <circle r='9.5' cx='45.0' cy='11.5' stroke-width='1.5' fill='rgb(255, 255, 255)' stroke='rgb(136, 136, 136)' look='allInOne'/>
    <line y1='21.0' x1='45.0' y2='66.5' x2='45.0' stroke-width='1.5' fill='rgb(255, 255, 255)' stroke='rgb(136, 136, 136)' look='allInOne'/>
    <line y1='38.0' x1='25.0' y2='38.0' x2='65.0' stroke-width='1.5' fill='rgb(255, 255, 255)' stroke='rgb(136, 136, 136)' look='allInOne'/>
    <line y1='66.5' x1='45.0' y2='93.0' x2='29.4' stroke-width='1.5' fill='rgb(255, 255, 255)' stroke='rgb(136, 136, 136)' look='allInOne'/>
    <line y1='66.5' x1='45.0' y2='93.0' x2='60.6' fill='rgb(255, 255, 255)' stroke='rgb(136, 136, 136)' look='allInOne'/>
    <text text-anchor='middle' x='45.0' y='108.0' font-size='13' font-style='normal' fill='rgb(0, 0, 0)'>Serveur</text>
  </g>
  <g transform='translate(40.0,378.0)' id='_T8whsVciEDmMj86LKNAAeA'>
    <circle r='9.5' cx='45.0' cy='11.5' stroke-width='1.5' fill='rgb(255, 255, 255)' stroke='rgb(136, 136, 136)' look='allInOne'/>
    <line y1='21.0' x1='45.0' y2='66.5' x2='45.0' stroke-width='1.5' fill='rgb(255, 255, 255)' stroke='rgb(136, 136, 136)' look='allInOne'/>
    <line y1='38.0' x1='25.0' y2='38.0' x2='65.0' stroke-width='1.5' fill='rgb(255, 255, 255)' stroke='rgb(136, 136, 136)' look='allInOne'/>
    <line y1='66.5' x1='45.0' y2='93.0' x2='29.4' stroke-width='1.5' fill='rgb(255, 255, 255)' stroke='rgb(136, 136, 136)' look='allInOne'/>
    <line y1='66.5' x1='45.0' y2='93.0' x2='60.6' fill='rgb(255, 255, 255)' stroke='rgb(136, 136, 136)' look='allInOne'/>
    <text text-anchor='middle' x='45.0' y='108.0' font-size='13' font-style='normal' fill='rgb(0, 0, 0)'>Président</text>
  </g>
  <g transform='translate(382.0,552.0)' id='_YUjoYFciEDmMj86LKNAAeA'>
    <ellipse cx='185.0' cy='42.5' rx='185.0' ry='42.5' stroke-width='1.0' fill='url(#626ff1be-7ae1-4084-9bb4-917d84876d71)' stroke='rgb(187, 187, 187)' look='allInOne'/>
    <g transform='translate(0.0,23.0)'>
      <g transform='translate(0.0,0.0)'>
        <text font-weight='bold' text-anchor='middle' x='185.0' y='13.0' font-size='13' fill='rgb(3, 54, 86)'>En tant que président du club je peux saisir les prochains lieux</text>
        <text font-weight='bold' text-anchor='middle' x='185.0' y='26.0' font-size='13' fill='rgb(3, 54, 86)'>et dates et , ainsi que la liste des membres qui seront affichées</text>
        <text font-weight='bold' text-anchor='middle' x='185.0' y='39.0' font-size='13' fill='rgb(3, 54, 86)'>sur la page d&apos;accueil</text>
      </g>
    </g>
  </g>
  <g transform='translate(19.0,203.0)' id='_k8AN4FceEDmMj86LKNAAeA'/>
  <g transform='translate(41.0,261.0)' id='_mAZDE1ceEDmMj86LKNAAeA'/>
  <g transform='translate(106.0,305.0)' id='_msetA1ceEDmMj86LKNAAeA'/>
  <g transform='translate(-29.0,347.0)' id='_nMHPUlceEDmMj86LKNAAeA'/>
  <g transform='translate(-31.0,144.0)' id='_yPQsUFchEDmMj86LKNAAeA'/>
  <g transform='translate(442.0,437.0)' id='_IIHO8FciEDmMj86LKNAAeA'/>
  <g transform='translate(-78.0,515.0)' id='_p5KHlFciEDmMj86LKNAAeA'/>
  <g id='_k778dFceEDmMj86LKNAAeA'>
    <line y1='267.0' x1='130.0' y2='109.0' x2='346.0' id='_k7-YslceEDmMj86LKNAAeA' stroke-width='1.0' fill='none' stroke='rgb(0, 0, 0)'/>
  </g>
  <g id='_mAS8c1ceEDmMj86LKNAAeA'>
    <line y1='286.0' x1='130.0' y2='205.0' x2='390.0' id='_mAXN4VceEDmMj86LKNAAeA' stroke-width='1.0' fill='none' stroke='rgb(0, 0, 0)'/>
  </g>
  <g id='_msZ0gVceEDmMj86LKNAAeA'>
    <line y1='298.0' x1='130.0' y2='281.0' x2='382.0' id='_msc30lceEDmMj86LKNAAeA' stroke-width='1.0' fill='none' stroke='rgb(0, 0, 0)'/>
  </g>
  <g id='_nL-sc1ceEDmMj86LKNAAeA'>
    <line y1='309.0' x1='130.0' y2='354.0' x2='382.0' id='_nMC94lceEDmMj86LKNAAeA' stroke-width='1.0' fill='none' stroke='rgb(0, 0, 0)'/>
  </g>
  <g id='_yPIwgFchEDmMj86LKNAAeA'>
    <line y1='149.0' x1='130.0' y2='109.0' x2='264.0' id='_yPNB8VchEDmMj86LKNAAeA' stroke-width='1.0' fill='none' stroke='rgb(0, 0, 0)'/>
  </g>
  <g id='_IIBIUVciEDmMj86LKNAAeA'>
    <line y1='393.0' x1='849.0' y2='451.0' x2='688.0' id='_IIEys1ciEDmMj86LKNAAeA' stroke-width='1.0' fill='none' stroke='rgb(0, 0, 0)'/>
  </g>
  <g id='_p5DZ4lciEDmMj86LKNAAeA'>
    <line y1='448.0' x1='130.0' y2='552.0' x2='439.0' id='_p5GdMlciEDmMj86LKNAAeA' stroke-width='1.0' fill='none' stroke='rgb(0, 0, 0)'/>
  </g>
</svg>
